…
``` r
# I used full_join() to combine Addax camera detections with rodent census data by date and plot, to show both results from each
combined_data <- full_join(
  addax_clean,
  rodents_clean,
  by = c("plot", "year", "month", "day")
) %>%
  mutate(date = make_date(year, month, day))
combined_data
```

    ## # A tibble: 69 × 8
    ##     plot  year month   day species confidence rodent_abundance date      
    ##    <dbl> <dbl> <dbl> <int> <chr>        <dbl>            <int> <date>    
    ##  1    11  2023    12    31 rabbit       1.00                NA 2023-12-31
    ##  2    11  2024     1     2 coyote       0.740               NA 2024-01-02
    ##  3    11  2024     1     2 bird         1.00                NA 2024-01-02
    ##  4    11  2024     1     4 rabbit       0.999               NA 2024-01-04
    ##  5    11  2024     1     4 rabbit       0.999               NA 2024-01-04
    ##  6    11  2024     1     4 raccoon      1.00                NA 2024-01-04
    ##  7    11  2024     1     4 raccoon      0.998               NA 2024-01-04
    ##  8    11  2024     1     4 raccoon      1.00                NA 2024-01-04
    ##  9    11  2024     1     4 rabbit       0.545               NA 2024-01-04
    ## 10    11  2024     1     4 raccoon      1.00                NA 2024-01-04
    ## # ℹ 59 more rows
…
addax_21east_cleaned
```

    ## # A tibble: 29 × 7
    ##     plot  year month   day species confidence date      
    ##    <dbl> <dbl> <dbl> <int> <chr>        <dbl> <date>    
    ##  1    21  2023    12    15 bird         0.997 2023-12-15
    ##  2    21  2023    12    15 bird         0.848 2023-12-15
    ##  3    21  2023    12    24 bird         0.764 2023-12-24
    ##  4    21  2023    12    27 boar         0.807 2023-12-27
    ##  5    21  2023    12    31 rabbit       0.992 2023-12-31
    ##  6    21  2023    12    31 rabbit       0.994 2023-12-31
    ##  7    21  2024     1     2 bird         0.914 2024-01-02
    ##  8    21  2024     1     2 raccoon      0.727 2024-01-02
    ##  9    21  2024     1     4 deer         0.997 2024-01-04
    ## 10    21  2024     1     4 boar         0.725 2024-01-04
    ## # ℹ 19 more rows
…
